{"total": 1451, "per_page": "10", "current_page": 146, "last_page": 146, "next_page_url": null, "prev_page_url": "http://60.216.117.227:9898/api/scenic?0=list&1=10&page=145", "from": 1451, "to": 1451, "data": [{"id": 4537, "scenic_id": "504ad58d83bb6ea7875d14f487945137", "destination_id": "ff8080812d01939c012d0247332d07be", "unit_code": null, "name_cn": "\u6ee8\u5dde\u9b4f\u96c6\u53e4\u9547\u65c5\u6e38\u533a", "short_name": null, "full_name": null, "address": "\u6ee8\u5dde\u5e02\u60e0\u6c11\u53bf\u9b4f\u96c6\u9547\u540c\u97e9\u8def", "longitude": "117.7597180000", "latitude": "37.3033210000", "site_slogan": "\u9f50\u9c81\u6c11\u4fd7\u6587\u5316\u5370\u8c61\u5730", "site_mag_name": null, "com_website": "http://www.sdwjgcl.com/html/main.asp", "site_caption": "\u9b4f\u96c6\u53e4\u6751\u843d\u662f\u4e00\u5904\u4eff\u660e\u6e05\u65f6\u671f\u53e4\u5efa\u7b51\u98ce\u683c\u7684\u666f\u533a\uff0c\u4f4d\u4e8e\u5c71\u4e1c\u7701\u6ee8\u5dde\u5e02\u60e0\u6c11\u53bf\u9b4f\u96c6\u9547\u540c\u97e9\u8def\u3002\u666f\u533a\u5171\u5206\u4e09\u671f\u5de5\u7a0b\uff0c\u4e00\u671f\u5de5\u7a0b\u5206\u4e3a\u98ce\u5473\u5c0f\u5403\u8857\u3001\u624b\u5de5\u4f5c\u574a\u8857\u3001\u6c11\u4fd7\u4e3b\u9898\u8857\u3001\u9152\u5427\u6587\u5316\u8857\u3001\u7f18\u5b9a\u8857\u4e94\u5927\u8857\u5df7\u3002 \r\n\u666f\u533a\u878d\u5408\u7279\u8272\u7f8e\u98df\u3001\u624b\u5de5\u4f5c\u574a\u3001\u6c11\u4fd7\u98ce\u60c5\u3001\u89c2\u5149\u6e38\u6c34\u3001\u6c11\u5bbf\u7b49\u5143\u7d20\uff0c\u5185\u6709200\u591a\u5bb6\u5c0f\u5403\u5e97\uff0c\u4ee5\u53ca\u7ee3\u697c\u3001\u5267\u573a\u3001\u6587\u5316\u9986\u3001\u6e38\u4e50\u573a\u7b4920\u591a\u4e2a\u5c0f\u578b\u666f\u70b9\uff0c\u7a7f\u63d2\u4e0a\u6f14\u626d\u79e7\u6b4c\u3001\u821e\u9f99\u821e\u72ee\u3001\u76ae\u5f71\u620f\u3001\u6742\u6280\u3001\u8bf4\u4e66\u3001\u7bdd\u706b\u665a\u4f1a\u7b49\u3002", "exposter_price": "\u666f\u533a\u63d0\u4f9b\u8bb2\u89e3\u670d\u52a1", "sight_fea": "\u6c38\u5b89\u7801\u5934 \u3001\u5b9a\u5b89\u53e4\u4e95 \u3001\u8d22\u795e\u6bbf\u3001\u6708\u8001\u7960\u3001\u89c2\u97f3\u6bbf \u3001\u9b4f\u5927\u7b97\u76d8", "supp_ser_fac": "\u7f8e\u98df\u5c0f\u5403\u8857\u6c47\u96c6\u9505\u5b50\u997c\u3001\u9a6c\u8e44\u706b\u70e7\u3001\u7599\u7629\u6c64\u3001\u6252\u9e21\u7b49\u9f50\u9c81\u5404\u5730\u7f8e\u98df\uff1b\u7f18\u5b9a\u8857\u6709\u5a5a\u4fd7\u4f11\u95f2\u9152\u5427\uff1b\u624b\u5de5\u4f5c\u574a\u8857\u6709\u9f50\u9c81\u6c11\u95f4\u4f5c\u574a\u7684\u4f20\u7edf\u5236\u4f5c\u5de5\u827a\u5c55\u793a\uff1b", "service_center": "\u4e3a\u6e38\u5ba2\u63d0\u4f9b\u54a8\u8be2\u3001\u6295\u8bc9\uff0c\u5ba3\u4f20\u8d44\u6599\u53d1\u653e\u3001\u4f11\u606f\u7b49\u65c5\u6e38\u670d\u52a1", "permanent_act": null, "best_season": null, "start_time": "\u5168\u5929\u5f00\u653e", "line_des": "\u65e0\u7279\u5b9a\u6e38\u89c8\u8def\u7ebf\uff0c\u6839\u636e\u559c\u597d\u81ea\u884c\u53c2\u89c2\u4f53\u9a8c", "bus_inf": "\u4e58\u5750\u516c\u4ea4C916\u8def\u4ece\u6ee8\u5dde\u6c7d\u8f66\u603b\u7ad9\u2014 \u59da\u5bb6\u6751\r\n\u53bf\u5185\u53ef\u4ee5\u4e58\u5750C901\u8def\u3001C912\u8def\u3001C913\u8def\u3001C915\u8def\u5230\u8fbe\u9b4f\u96c6\u8def\u53e3\u7ad9\u540e\uff0c\u5728\u672c\u7ad9\u7b49\u5f85C916\u8def\u5230\u7ad9\u540e\u4e58\u5750\u81f3\u9b4f\u96c6\u53e4\u6751\u843d\u7ad9", "self_dr_inf": "\u6d4e\u5357--220\u56fd\u9053--\u80e1\u96c6\u6536\u8d39\u7ad9\u53f3\u8f6c--\u6851\u738b\u8def--\u9b4f\u96c6\u53e4\u6751\u843d\uff0c\u6ee8\u5dde\u65b9\u5411-\u9ec4\u6cb3\u4e8c\u8def--220 \u56fd\u9053--\u80e1\u96c6\u6536\u8d39\u7ad9\u5de6\u8f6c--\u6851\u738b\u8def--\u9b4f\u96c6\u53e4\u6751\u843d", "tour_time": "3.0", "park_inf": "\u666f\u533a\u8bbe\u6709\u505c\u8f66\u573a", "audit_state": 2, "scenic_level_id": 4, "defaultphoto": "/uploads/1513576221/1513576269-bk7i5977.JPG", "keywords": null, "tags": null, "scenic_logo": null, "created_at": "2017-12-18 13:44:28", "updated_at": "2017-12-26 17:15:22", "contact": "0543-2133666", "rank": 80, "is_404": 0, "price": 0, "price_desc": "\u5168\u5929\u5019\u514d\u8d39\u5f00\u653e", "ticket_preferential_policy": null, "scenic_level_name": "AAAA\u7ea7", "cityname": "\u6ee8\u5dde\u5e02", "scenic_titles": [], "scenic_types": [], "scenic_subjects": [], "areaname": "\u60e0\u6c11\u53bf", "perlink": "http://www.sdta.cn/scenic/504ad58d83bb6ea7875d14f487945137.html", "compresspic": "/uploads/generated/1513576221/1513576269-bk7i5977-1024x_.JPG", "level": {"scenic_level_id": "4", "scenic_level_name": "AAAA\u7ea7"}, "scenic_branchs": [], "destination": {"id": 85, "destination_id": "ff8080812d01939c012d0247332d07be", "destname": "\u60e0\u6c11\u53bf", "full_name": "huiminxian", "short_name": "hmx", "adm_name": "\u60e0\u6c11\u53bf\u65c5\u6e38\u5c40", "adm_address": "\u60e0\u6c11\u53bf\u4e1c\u95e8\u5927\u8857174\u53f7", "adm_phone": "0543-5321141", "dest_des": "\u3000\u3000\u60e0\u6c11\u53bf\u4f4d\u4e8e\u5c71\u4e1c\u7701\u5317\u90e8\u5e73\u539f\uff0c\u9762\u79ef1357\u5e73\u65b9\u516c\u91cc\uff0c\u4eba\u53e362\u4e07\uff0c\u5730\u5904\u4eac\u6d25\u5510\u548c\u5c71\u4e1c\u534a\u5c9b\u4e24\u5927\u53d1\u8fbe\u7ecf\u6d4e\u533a\u7684\u4ea4\u6c47\u70b9\u4e0a\uff0c\u5c5e\u9ec4\u6cb3\u4e09\u89d2\u6d32\u8179\u90e8\u5730\u533a\u548c\u73af\u6e24\u6d77\u7ecf\u6d4e\u5f00\u53d1\u5708\uff0c\u533a\u4f4d\u4f18\u52bf\u660e\u663e\uff0c\u662f\u8fde\u63a5\u534e\u4e1c\u3001\u534e\u5317\u7684\u4ea4\u901a\u67a2\u7ebd\uff0c\u8ddd\u6d4e\u5357\u56fd\u9645\u673a\u573a120\u516c\u91cc\uff0c\u8ddd\u5929\u6d25240\u516c\u91cc\u3002\u5883\u5185220\u56fd\u9053\u53ca\u7701\u7ea7\u5e72\u7ebf\u516c\u8def\u7eb5\u6a2a\u4ea4\u9519\uff0c\u4ea4\u901a\u8fd0\u8f93\u56db\u901a\u516b\u8fbe\u3002\n\u3000\u3000\u60e0\u6c11\u53bf\u5386\u53f2\u60a0\u4e45\uff0c\u65c5\u6e38\u8d44\u6e90\u4e30\u5bcc\u800c\u72ec\u5177\u7279\u8272\u3002\u81ea\u79e6\u59cb\u7687\u4e1c\u5de1\u8bbe\u538c\u6b21\u53bf\u4ee5\u6765\uff0c\u5386\u4e3a\u5dde\u3001\u5e9c\u3001\u90e1\u3001\u53bf\u6cbb\u6240\uff0c\u6e05\u4ee3\u4e3a\u6b66\u5b9a\u5e9c\uff0c\u6709\"\u9c81\u5317\u9996\u9091\"\u4e4b\u79f0\u3002\u60a0\u4e45\u7684\u5386\u53f2\u57f9\u80b2\u4e86\u4f17\u591a\u540d\u4eba\u5fd7\u58eb\uff0c\u4e2d\u56fd\u6625\u79cb\u65f6\u671f\u5927\u519b\u4e8b\u5bb6\u3001\u300a\u5b59\u5b50\u5175\u6cd5\u300b\u7684\u4f5c\u8005\u5b59\u6b66\u5c31\u8bde\u751f\u5728\u8fd9\u91cc\uff0c\u56e0\u6b64\uff0c\u60e0\u6c11\u6709\"\u5b59\u5b50\u6545\u91cc\"\u3001\"\u5175\u7956\u6851\u6893\"\u4e4b\u79f0\u3002\u6c49\u4ee3\u5927\u6587\u5b66\u5bb6\u4e1c\u65b9\u6714\u3001\u968b\u671d\u753b\u5bb6\u5c55\u5b50\u8654\u3001\u5143\u4ee3\u5267\u4f5c\u5bb6\u5eb7\u8fdb\u4e4b\u90fd\u8bde\u751f\u5728\u8fd9\u91cc\u3002\n\u3000\u3000\u60e0\u6c11\u53bf\u62e5\u6709\u4e30\u5bcc\u7684\u4eba\u6587\u4e0e\u81ea\u7136\u666f\u89c2\uff0c\u88ab\u5c71\u4e1c\u7701\u5217\u4e3a\u516b\u5927\u91cd\u70b9\u65c5\u6e38\u666f\u533a\u4e4b\u4e00\uff0c2003\u5e741\u6708\u53c8\u88ab\u5217\u4e3a\u7701\u7ea7\u5386\u53f2\u6587\u5316\u540d\u57ce\u3002\u5883\u5185\u6709\u56fd\u5bb6\u7ea7\u91cd\u70b9\u6587\u7269\u4fdd\u62a4\u5355\u4f4d--\u5168\u56fd\u73b0\u5b58\u552f\u4e00\u6e05\u4ee3\u57ce\u5821\u5f0f\u6c11\u5c45\"\u9b4f\u6c0f\u5e84\u56ed\"\uff0c\u6709\u4e3a\u7eaa\u5ff5\u4e2d\u56fd\u53e4\u4ee3\u519b\u4e8b\u5bb6\u5b59\u6b66\u800c\u4fee\u5efa\u7684\u5927\u578b\u4eff\u53e4\u5f0f\u5efa\u7b51\u7fa4\"\u5b59\u5b50\u6545\u56ed\"\uff0c\u6709\u6cf0\u5c71\u884c\u5bab\u3001\u5b8b\u4ee3\u53e4\u57ce\u5899\u9057\u5740\u3001\u5c71\u4e1c\u7701\u6700\u5927\u7684\u5e73\u539f\u6797\u573a\u4fdd\u62a4\u533a\u3001\u6709\u98ce\u5149\u79c0\u4e3d\u7684\u9ec4\u6cb3\u81ea\u7136\u98ce\u666f\u548c\u4f18\u7f8e\u72ec\u7279\u7684\u751f\u6001\u519c\u4e1a\u666f\u8272\uff0c\u4ee5\u53ca\u5927\u5546\u6587\u5316\u3001\u9f99\u5c71\u6587\u5316\u9057\u5740\u3002\u4f20\u7edf\u6c11\u95f4\u827a\u672f\u5f02\u5f69\u7eb7\u5448\uff0c\u6cb3\u5357\u5f20\u6ce5\u5851\u3001\u6e05\u6cb3\u9547\u6728\u7248\u5e74\u753b\u3001\u526a\u7eb8\u3001\u9b4f\u96c6\u53e4\u6728\u5bb6\u5177\u7b49\u5177\u6709\u6d53\u539a\u4e61\u571f\u6c14\u606f\u548c\u5730\u65b9\u7279\u8272\u3002", "culture": "\u60e0\u6c11\u53bf\u5386\u53f2\u60a0\u4e45\uff0c\u57f9\u80b2\u4e86\u4f17\u591a\u540d\u4eba\u5fd7\u58eb\uff0c\u6625\u79cb\u65f6\u671f\u5927\u519b\u4e8b\u5bb6\u3001\u300a\u5b59\u5b50\u5175\u6cd5\u300b\u7684\u4f5c\u8005\u5b59\u6b66\uff3c\u6c49\u4ee3\u5927\u6587\u5b66\u5bb6\u4e1c\u65b9\u6714\u3001\u968b\u671d\u753b\u5bb6\u5c55\u5b50\u8654\u3001\u5143\u4ee3\u5267\u4f5c\u5bb6\u5eb7\u8fdb\u4e4b\u90fd\u8bde\u751f\u5728\u8fd9\u91cc\u3002\u60e0\u6c11\u53bf\u62e5\u6709\u4e30\u5bcc\u7684\u4eba\u6587\u4e0e\u81ea\u7136\u666f\u89c2\uff0c\u4ee5\u53ca\u5927\u5546\u6587\u5316\u3001\u9f99\u5c71\u6587\u5316\u9057\u5740\u3002\u4f20\u7edf\u6c11\u95f4\u827a\u672f\u5f02\u5f69\u7eb7\u5448\uff0c\u6cb3\u5357\u5f20\u6ce5\u5851\u3001\u6e05\u6cb3\u9547\u6728\u7248\u5e74\u753b\u3001\u526a\u7eb8\u3001\u9b4f\u96c6\u53e4\u6728\u5bb6\u5177\u7b49\u5177\u6709\u6d53\u539a\u4e61\u571f\u6c14\u606f\u548c\u5730\u65b9\u7279\u8272\u3002", "dest_adver": "\u6b66\u5723\u5b59\u5b50\u6545\u91cc \u7eff\u8272\u751f\u6001\u60e0\u6c11", "clim_des": "\u60e0\u6c11\u7684\u6c14\u5019\u5c5e\u6696\u6e29\u5e26\u5927\u9646\u6027\u5b63\u98ce\u6c14\u5019\uff0c\u56db\u5b63\u5206\u660e\uff0c\u5149\u7167\u5145\u8db3\u3002", "notes_des": "\u90e8\u5206\u666f\u70b9\u4e3a\u6587\u7269\u4fdd\u62a4\u5355\u4f4d\uff0c\u5ba4\u5185\u53c2\u89c2\u6e38\u89c8\u65f6\u8bf7\u6ce8\u610f\u666f\u533a\u8981\u6c42\uff0c\u7981\u6b62\u62cd\u7167\u3002", "tou_taboo": "\u60e0\u6c11\u5f53\u5730\u6709\u56de\u6c11\u5c45\u4f4f\uff0c\u524d\u5f80\u6e05\u771f\u9910\u9986\u5c31\u9910\u9700\u5c0a\u91cd\u7a46\u65af\u6797\u7684\u5b97\u6559\u4e60\u4fd7\u3002", "fea_inf": null, "longitude": null, "latitude": null, "airlines": "\u60e0\u6c11\u53bf\u8ddd\u79bb\u6d4e\u5357\u9065\u5899\u56fd\u9645\u673a\u573a120\u516c\u91cc\uff0c\u7ea6\u4e24\u5c0f\u65f6\u8f66\u7a0b\uff0c\u4e58\u5750\u98de\u673a\u51fa\u884c\u7684\u6e38\u5ba2\u53ef\u4ee5\u5148\u5230\u8fbe\u6d4e\u5357\uff0c\u4e58\u673a\u573a\u5927\u5df4\u5230\u6d4e\u5357\u957f\u9014\u6c7d\u8f66\uff0c\u518d\u6362\u4e58\u957f\u9014\u6c7d\u8f66\u5230\u8fbe\u60e0\u6c11\u53bf\u3002\n\u6d4e\u5357\u673a\u573a\u95ee\u8be2\u7535\u8bdd\uff1a0531-96888", "railway": "\u60e0\u6c11\u53bf\u5883\u5185\u76ee\u524d\u6ca1\u6709\u94c1\u8def\u5ba2\u8fd0\u7ad9\uff0c\u4e58\u5750\u706b\u8f66\u51fa\u884c\u7684\u6e38\u5ba2\u53ef\u4ee5\u5148\u5230\u6d4e\u5357\u7ad9\u4e0b\u706b\u8f66\uff0c\u518d\u8f6c\u4e58\u957f\u9014\u6c7d\u8f66\u5230\u8fbe\u60e0\u6c11\u53bf\u3002", "highway": "\u60e0\u6c11\u53bf\u5883\u5185220\u56fd\u9053\u53ca\u7701\u7ea7\u5e72\u7ebf\u516c\u8def\u7eb5\u6a2a\u4ea4\u9519\uff0c\u4ea4\u901a\u8fd0\u8f93\u53d1\u8fbe\uff0c\u957f\u9014\u6c7d\u8f66\u7ad9\u8bbe\u6709\u53d1\u5f80\u6d4e\u5357\u5e02\u3001\u9752\u5c9b\u5e02\u3001\u6ee8\u5dde\u5e02\u3001\u5fb7\u5dde\u5e02\u7684\u957f\u9014\u73ed\u7ebf\uff0c\u53d1\u8f66\u5bc6\u96c6\uff0c\u4e58\u5750\u65b9\u4fbf\u3002", "water_carriage": "\u60e0\u6c11\u4e3a\u5185\u9646\u57ce\u5e02\uff0c\u6ca1\u6709\u6c34\u8fd0\u822a\u7ebf\u3002", "bus": "\u53bf\u57ce\u5185\u6709\u5c11\u91cf\u516c\u4ea4\u7ebf\u8def\uff0c\u90e8\u5206\u7ebf\u8def\u901a\u5f80\u4e61\u9547\uff0c\u6536\u8d39\u4f9d\u636e\u8ddd\u79bb\u8fdc\u8fd11-5\u5143\u4e0d\u7b49\u3002", "taxi": "\u53bf\u57ce\u5185\u6709\u51fa\u79df\u8f66\uff0c\u4e58\u5750\u65b9\u4fbf\uff0c\u4e00\u822c5\u51432\u516c\u91cc\u8d77\u6b65\u3002", "fea_traffic": null, "created_at": "2010-12-20 00:00:00", "updated_at": "2017-07-05 10:52:22", "audit_state": 2, "website": null, "dest_type_id": 2, "defaultphoto": "/backend/info/upload/null/e73aaf5f-e10f-414b-b1c7-3e446bbe669d.jpg", "keywords": null, "tags": "\u5b59\u5b50\u6545\u91cc,\u6b66\u5723,\u5b59\u5b50\u5175\u6cd5\u57ce,\u9b4f\u6c0f\u5e84\u56ed,\u60e0\u6c11\u53bf", "charmcitypic": null, "daren_picture": null, "area_id": "371621", "rank": 0, "is_404": 0, "cityname": "\u6ee8\u5dde\u5e02"}, "bestseason": null, "paytypes": [], "pictures": [{"id": 307087, "pho_id": "cd4117854754fae1db3b8607fa611ec3", "picable_id": "504ad58d83bb6ea7875d14f487945137", "picable_type": "Botble\\Infoscenic\\Models\\Infoscenic", "pho_name": null, "pho_type": null, "pho_format": null, "pho_path": "/uploads/1513576221/1513576327-bk7i6063.JPG", "created_at": "2017-12-26 17:15:22", "updated_at": "2017-12-26 17:15:22", "rank": 0, "is_404": 0, "deleted_at": null}, {"id": 307088, "pho_id": "be5c1e142c01714b0272d805505e5da5", "picable_id": "504ad58d83bb6ea7875d14f487945137", "picable_type": "Botble\\Infoscenic\\Models\\Infoscenic", "pho_name": null, "pho_type": null, "pho_format": null, "pho_path": "/uploads/1513576221/1513576325-bk7i6060.JPG", "created_at": "2017-12-26 17:15:23", "updated_at": "2017-12-26 17:15:23", "rank": 0, "is_404": 0, "deleted_at": null}, {"id": 307089, "pho_id": "f87ad51895daae074e843f3f8612ac6c", "picable_id": "504ad58d83bb6ea7875d14f487945137", "picable_type": "Botble\\Infoscenic\\Models\\Infoscenic", "pho_name": null, "pho_type": null, "pho_format": null, "pho_path": "/uploads/1513576221/1513576322-bk7i6056.JPG", "created_at": "2017-12-26 17:15:23", "updated_at": "2017-12-26 17:15:23", "rank": 0, "is_404": 0, "deleted_at": null}, {"id": 307090, "pho_id": "bc0d1d957b7691bba392b6dbc482a4fb", "picable_id": "504ad58d83bb6ea7875d14f487945137", "picable_type": "Botble\\Infoscenic\\Models\\Infoscenic", "pho_name": null, "pho_type": null, "pho_format": null, "pho_path": "/uploads/1513576221/1513576319-bk7i6047.JPG", "created_at": "2017-12-26 17:15:23", "updated_at": "2017-12-26 17:15:23", "rank": 0, "is_404": 0, "deleted_at": null}, {"id": 307091, "pho_id": "f96866dbac1be46653a7d277884f7185", "picable_id": "504ad58d83bb6ea7875d14f487945137", "picable_type": "Botble\\Infoscenic\\Models\\Infoscenic", "pho_name": null, "pho_type": null, "pho_format": null, "pho_path": "/uploads/1513576221/1513576317-bk7i6043.JPG", "created_at": "2017-12-26 17:15:23", "updated_at": "2017-12-26 17:15:23", "rank": 0, "is_404": 0, "deleted_at": null}, {"id": 307092, "pho_id": "967a53f639a946ebaab3705ed20e59b3", "picable_id": "504ad58d83bb6ea7875d14f487945137", "picable_type": "Botble\\Infoscenic\\Models\\Infoscenic", "pho_name": null, "pho_type": null, "pho_format": null, "pho_path": "/uploads/1513576221/1513576315-bk7i6041.JPG", "created_at": "2017-12-26 17:15:23", "updated_at": "2017-12-26 17:15:23", "rank": 0, "is_404": 0, "deleted_at": null}, {"id": 307093, "pho_id": "f476806463024e6b33763219e2e888f7", "picable_id": "504ad58d83bb6ea7875d14f487945137", "picable_type": "Botble\\Infoscenic\\Models\\Infoscenic", "pho_name": null, "pho_type": null, "pho_format": null, "pho_path": "/uploads/1513576221/1513576312-bk7i6036.JPG", "created_at": "2017-12-26 17:15:23", "updated_at": "2017-12-26 17:15:23", "rank": 0, "is_404": 0, "deleted_at": null}, {"id": 307094, "pho_id": "0fb65bc1b35a2d2011622664e4d8f793", "picable_id": "504ad58d83bb6ea7875d14f487945137", "picable_type": "Botble\\Infoscenic\\Models\\Infoscenic", "pho_name": null, "pho_type": null, "pho_format": null, "pho_path": "/uploads/1513576221/1513576310-bk7i6034.JPG", "created_at": "2017-12-26 17:15:23", "updated_at": "2017-12-26 17:15:23", "rank": 0, "is_404": 0, "deleted_at": null}, {"id": 307095, "pho_id": "c53c6f9ef8a2b185104ea75e1741193d", "picable_id": "504ad58d83bb6ea7875d14f487945137", "picable_type": "Botble\\Infoscenic\\Models\\Infoscenic", "pho_name": null, "pho_type": null, "pho_format": null, "pho_path": "/uploads/1513576221/1513576308-bk7i6032.JPG", "created_at": "2017-12-26 17:15:23", "updated_at": "2017-12-26 17:15:23", "rank": 0, "is_404": 0, "deleted_at": null}, {"id": 307096, "pho_id": "e5998b8753c934c687b5f62825f9fb6b", "picable_id": "504ad58d83bb6ea7875d14f487945137", "picable_type": "Botble\\Infoscenic\\Models\\Infoscenic", "pho_name": null, "pho_type": null, "pho_format": null, "pho_path": "/uploads/1513576221/1513576304-bk7i6024.JPG", "created_at": "2017-12-26 17:15:23", "updated_at": "2017-12-26 17:15:23", "rank": 0, "is_404": 0, "deleted_at": null}, {"id": 307097, "pho_id": "0339eaf0e63e7008c2dce87f696d32e0", "picable_id": "504ad58d83bb6ea7875d14f487945137", "picable_type": "Botble\\Infoscenic\\Models\\Infoscenic", "pho_name": null, "pho_type": null, "pho_format": null, "pho_path": "/uploads/1513576221/1513576302-bk7i6023.JPG", "created_at": "2017-12-26 17:15:23", "updated_at": "2017-12-26 17:15:23", "rank": 0, "is_404": 0, "deleted_at": null}, {"id": 307098, "pho_id": "2ab3a5b3240a2d3ad126eae6140f1233", "picable_id": "504ad58d83bb6ea7875d14f487945137", "picable_type": "Botble\\Infoscenic\\Models\\Infoscenic", "pho_name": null, "pho_type": null, "pho_format": null, "pho_path": "/uploads/1513576221/1513576300-bk7i6016.JPG", "created_at": "2017-12-26 17:15:23", "updated_at": "2017-12-26 17:15:23", "rank": 0, "is_404": 0, "deleted_at": null}, {"id": 307099, "pho_id": "8b3b126e0b35d67b609296e6b72c53fb", "picable_id": "504ad58d83bb6ea7875d14f487945137", "picable_type": "Botble\\Infoscenic\\Models\\Infoscenic", "pho_name": null, "pho_type": null, "pho_format": null, "pho_path": "/uploads/1513576221/1513576297-bk7i6013.JPG", "created_at": "2017-12-26 17:15:23", "updated_at": "2017-12-26 17:15:23", "rank": 0, "is_404": 0, "deleted_at": null}, {"id": 307100, "pho_id": "61af04376529e1a1fb69379e63ea4781", "picable_id": "504ad58d83bb6ea7875d14f487945137", "picable_type": "Botble\\Infoscenic\\Models\\Infoscenic", "pho_name": null, "pho_type": null, "pho_format": null, "pho_path": "/uploads/1513576221/1513576295-bk7i6011.JPG", "created_at": "2017-12-26 17:15:23", "updated_at": "2017-12-26 17:15:23", "rank": 0, "is_404": 0, "deleted_at": null}, {"id": 307101, "pho_id": "adecb8ce8698b48dd83c4c185776872a", "picable_id": "504ad58d83bb6ea7875d14f487945137", "picable_type": "Botble\\Infoscenic\\Models\\Infoscenic", "pho_name": null, "pho_type": null, "pho_format": null, "pho_path": "/uploads/1513576221/1513576292-bk7i6004.JPG", "created_at": "2017-12-26 17:15:23", "updated_at": "2017-12-26 17:15:23", "rank": 0, "is_404": 0, "deleted_at": null}, {"id": 307102, "pho_id": "b5432b7527dee4d7e9f3e3c97c10bd28", "picable_id": "504ad58d83bb6ea7875d14f487945137", "picable_type": "Botble\\Infoscenic\\Models\\Infoscenic", "pho_name": null, "pho_type": null, "pho_format": null, "pho_path": "/uploads/1513576221/1513576290-bk7i6003.JPG", "created_at": "2017-12-26 17:15:23", "updated_at": "2017-12-26 17:15:23", "rank": 0, "is_404": 0, "deleted_at": null}, {"id": 307103, "pho_id": "2dd1aa4a6ff9d6a6632e3fd61b52adf1", "picable_id": "504ad58d83bb6ea7875d14f487945137", "picable_type": "Botble\\Infoscenic\\Models\\Infoscenic", "pho_name": null, "pho_type": null, "pho_format": null, "pho_path": "/uploads/1513576221/1513576288-bk7i5994.JPG", "created_at": "2017-12-26 17:15:23", "updated_at": "2017-12-26 17:15:23", "rank": 0, "is_404": 0, "deleted_at": null}, {"id": 307104, "pho_id": "9d9e8cb12a44f41a4b8db82ea5e15321", "picable_id": "504ad58d83bb6ea7875d14f487945137", "picable_type": "Botble\\Infoscenic\\Models\\Infoscenic", "pho_name": null, "pho_type": null, "pho_format": null, "pho_path": "/uploads/1513576221/1513576285-bk7i5993.JPG", "created_at": "2017-12-26 17:15:23", "updated_at": "2017-12-26 17:15:23", "rank": 0, "is_404": 0, "deleted_at": null}, {"id": 307105, "pho_id": "759ab3ec8095f19555e36c07a3095cd2", "picable_id": "504ad58d83bb6ea7875d14f487945137", "picable_type": "Botble\\Infoscenic\\Models\\Infoscenic", "pho_name": null, "pho_type": null, "pho_format": null, "pho_path": "/uploads/1513576221/1513576283-bk7i5986.JPG", "created_at": "2017-12-26 17:15:23", "updated_at": "2017-12-26 17:15:23", "rank": 0, "is_404": 0, "deleted_at": null}, {"id": 307106, "pho_id": "308af5cb6566787660d39be9df0196f1", "picable_id": "504ad58d83bb6ea7875d14f487945137", "picable_type": "Botble\\Infoscenic\\Models\\Infoscenic", "pho_name": null, "pho_type": null, "pho_format": null, "pho_path": "/uploads/1513576221/1513576280-bk7i5985.JPG", "created_at": "2017-12-26 17:15:23", "updated_at": "2017-12-26 17:15:23", "rank": 0, "is_404": 0, "deleted_at": null}, {"id": 307107, "pho_id": "8544023f66dad1046f5b69637010517f", "picable_id": "504ad58d83bb6ea7875d14f487945137", "picable_type": "Botble\\Infoscenic\\Models\\Infoscenic", "pho_name": null, "pho_type": null, "pho_format": null, "pho_path": "/uploads/1513576221/1513576278-bk7i5984.JPG", "created_at": "2017-12-26 17:15:23", "updated_at": "2017-12-26 17:15:23", "rank": 0, "is_404": 0, "deleted_at": null}, {"id": 307108, "pho_id": "bbd1855809b060822b5405acf611bebf", "picable_id": "504ad58d83bb6ea7875d14f487945137", "picable_type": "Botble\\Infoscenic\\Models\\Infoscenic", "pho_name": null, "pho_type": null, "pho_format": null, "pho_path": "/uploads/1513576221/1513576275-bk7i5982.JPG", "created_at": "2017-12-26 17:15:23", "updated_at": "2017-12-26 17:15:23", "rank": 0, "is_404": 0, "deleted_at": null}, {"id": 307109, "pho_id": "e7e8566ecb554e937dbce51c92444d2a", "picable_id": "504ad58d83bb6ea7875d14f487945137", "picable_type": "Botble\\Infoscenic\\Models\\Infoscenic", "pho_name": null, "pho_type": null, "pho_format": null, "pho_path": "/uploads/1513576221/1513576272-bk7i5980.JPG", "created_at": "2017-12-26 17:15:23", "updated_at": "2017-12-26 17:15:23", "rank": 0, "is_404": 0, "deleted_at": null}, {"id": 307110, "pho_id": "0cbabd88bb57675a570ae81ed9512bf0", "picable_id": "504ad58d83bb6ea7875d14f487945137", "picable_type": "Botble\\Infoscenic\\Models\\Infoscenic", "pho_name": null, "pho_type": null, "pho_format": null, "pho_path": "/uploads/1513576221/1513576269-bk7i5977.JPG", "created_at": "2017-12-26 17:15:23", "updated_at": "2017-12-26 17:15:23", "rank": 0, "is_404": 0, "deleted_at": null}, {"id": 307111, "pho_id": "060f3469e828f19ed72f24a037037b68", "picable_id": "504ad58d83bb6ea7875d14f487945137", "picable_type": "Botble\\Infoscenic\\Models\\Infoscenic", "pho_name": null, "pho_type": null, "pho_format": null, "pho_path": "/uploads/1513576221/1513576267-bk7i5975.JPG", "created_at": "2017-12-26 17:15:23", "updated_at": "2017-12-26 17:15:23", "rank": 0, "is_404": 0, "deleted_at": null}, {"id": 307112, "pho_id": "c3cd16f554759bba491281ba907c09fb", "picable_id": "504ad58d83bb6ea7875d14f487945137", "picable_type": "Botble\\Infoscenic\\Models\\Infoscenic", "pho_name": null, "pho_type": null, "pho_format": null, "pho_path": "/uploads/1513576221/1513576264-bk7i5968.JPG", "created_at": "2017-12-26 17:15:24", "updated_at": "2017-12-26 17:15:24", "rank": 0, "is_404": 0, "deleted_at": null}, {"id": 307113, "pho_id": "1606ff5fbdee5bec5103a7ba0c7bbf91", "picable_id": "504ad58d83bb6ea7875d14f487945137", "picable_type": "Botble\\Infoscenic\\Models\\Infoscenic", "pho_name": null, "pho_type": null, "pho_format": null, "pho_path": "/uploads/1513576221/1513576262-bk7i5966.JPG", "created_at": "2017-12-26 17:15:24", "updated_at": "2017-12-26 17:15:24", "rank": 0, "is_404": 0, "deleted_at": null}, {"id": 307114, "pho_id": "b3afb25b9f27736396f7e5a4c455d84a", "picable_id": "504ad58d83bb6ea7875d14f487945137", "picable_type": "Botble\\Infoscenic\\Models\\Infoscenic", "pho_name": null, "pho_type": null, "pho_format": null, "pho_path": "/uploads/1513576221/1513576259-bk7i5964.JPG", "created_at": "2017-12-26 17:15:24", "updated_at": "2017-12-26 17:15:24", "rank": 0, "is_404": 0, "deleted_at": null}, {"id": 307115, "pho_id": "2dd375906125466f952efa8c7509eb32", "picable_id": "504ad58d83bb6ea7875d14f487945137", "picable_type": "Botble\\Infoscenic\\Models\\Infoscenic", "pho_name": null, "pho_type": null, "pho_format": null, "pho_path": "/uploads/1513576221/1513576256-bk7i5960.JPG", "created_at": "2017-12-26 17:15:24", "updated_at": "2017-12-26 17:15:24", "rank": 0, "is_404": 0, "deleted_at": null}, {"id": 307116, "pho_id": "bed0b982ed4fed528ca531ddc0e9fd65", "picable_id": "504ad58d83bb6ea7875d14f487945137", "picable_type": "Botble\\Infoscenic\\Models\\Infoscenic", "pho_name": null, "pho_type": null, "pho_format": null, "pho_path": "/uploads/1513576221/1513576254-bk7i5951.JPG", "created_at": "2017-12-26 17:15:24", "updated_at": "2017-12-26 17:15:24", "rank": 0, "is_404": 0, "deleted_at": null}, {"id": 307117, "pho_id": "bc91cdf241abda2e02e5c6d31e48ea76", "picable_id": "504ad58d83bb6ea7875d14f487945137", "picable_type": "Botble\\Infoscenic\\Models\\Infoscenic", "pho_name": null, "pho_type": null, "pho_format": null, "pho_path": "/uploads/1513576221/1513576251-bk7i5945.JPG", "created_at": "2017-12-26 17:15:24", "updated_at": "2017-12-26 17:15:24", "rank": 0, "is_404": 0, "deleted_at": null}, {"id": 307118, "pho_id": "4dcb7fa57a354b2fba06b6e3a89b652d", "picable_id": "504ad58d83bb6ea7875d14f487945137", "picable_type": "Botble\\Infoscenic\\Models\\Infoscenic", "pho_name": null, "pho_type": null, "pho_format": null, "pho_path": "/uploads/1513576221/1513576247-bk7i5937.JPG", "created_at": "2017-12-26 17:15:24", "updated_at": "2017-12-26 17:15:24", "rank": 0, "is_404": 0, "deleted_at": null}], "videos": [], "audios": [], "panos": []}]}